Training Workshop on Data Visualization using ggplot2 in R
…
---

## Reading data into R

#### Excel files using [readxl package](https://readxl.tidyverse.org/)

.leftcol60[

```r
library(readxl)
read_excel("path/dataset.xls")
```

```
# A tibble: 150 x 5
   Sepal.Length Sepal.Width Petal.Length Petal.Width Species
          <dbl>       <dbl>        <dbl>       <dbl> <chr>  
 1          5.1         3.5          1.4         0.2 setosa 
 2          4.9         3            1.4         0.2 setosa 
 3          4.7         3.2          1.3         0.2 setosa 
 4          4.6         3.1          1.5         0.2 setosa 
 5          5           3.6          1.4         0.2 setosa 
 6          5.4         3.9          1.7         0.4 setosa 
 7          4.6         3.4          1.4         0.3 setosa 
 8          5           3.4          1.5         0.2 setosa 
 9          4.4         2.9          1.4         0.2 setosa 
10          4.9         3.1          1.5         0.1 setosa 
# ... with 140 more rows
```
…
.leftcol[

```r
data
```

```
# A tibble: 1,704 x 6
   country     continent  year lifeExp      pop gdpPercap
   <fct>       <fct>     <int>   <dbl>    <int>     <dbl>
 1 Afghanistan Asia       1952    28.8  8425333      779.
 2 Afghanistan Asia       1957    30.3  9240934      821.
 3 Afghanistan Asia       1962    32.0 10267083      853.
 4 Afghanistan Asia       1967    34.0 11537966      836.
 5 Afghanistan Asia       1972    36.1 13079460      740.
 6 Afghanistan Asia       1977    38.4 14880372      786.
 7 Afghanistan Asia       1982    39.9 12881816      978.
 8 Afghanistan Asia       1987    40.8 13867957      852.
 9 Afghanistan Asia       1992    41.7 16317921      649.
10 Afghanistan Asia       1997    41.8 22227415      635.
# ... with 1,694 more rows
```
]

.rightcol[

```r
select(data, continent, country, pop)
```

```
# A tibble: 1,704 x 3
   continent country          pop
   <fct>     <fct>          <int>
 1 Asia      Afghanistan  8425333
 2 Asia      Afghanistan  9240934
 3 Asia      Afghanistan 10267083
 4 Asia      Afghanistan 11537966
 5 Asia      Afghanistan 13079460
 6 Asia      Afghanistan 14880372
 7 Asia      Afghanistan 12881816
 8 Asia      Afghanistan 13867957
 9 Asia      Afghanistan 16317921
10 Asia      Afghanistan 22227415
# ... with 1,694 more rows
```
…
---

## `select()`

We can also **remove** variables with a **`-`** (minus)

.leftcol[

```r
data
```

```
# A tibble: 1,704 x 6
   country     continent  year lifeExp      pop gdpPercap
   <fct>       <fct>     <int>   <dbl>    <int>     <dbl>
 1 Afghanistan Asia       1952    28.8  8425333      779.
 2 Afghanistan Asia       1957    30.3  9240934      821.
 3 Afghanistan Asia       1962    32.0 10267083      853.
 4 Afghanistan Asia       1967    34.0 11537966      836.
 5 Afghanistan Asia       1972    36.1 13079460      740.
 6 Afghanistan Asia       1977    38.4 14880372      786.
 7 Afghanistan Asia       1982    39.9 12881816      978.
 8 Afghanistan Asia       1987    40.8 13867957      852.
 9 Afghanistan Asia       1992    41.7 16317921      649.
10 Afghanistan Asia       1997    41.8 22227415      635.
# ... with 1,694 more rows
```
]

.rightcol[

```r
select(data, -year, -pop)
```

```
# A tibble: 1,704 x 4
   country     continent lifeExp gdpPercap
   <fct>       <fct>       <dbl>     <dbl>
 1 Afghanistan Asia         28.8      779.
 2 Afghanistan Asia         30.3      821.
 3 Afghanistan Asia         32.0      853.
 4 Afghanistan Asia         34.0      836.
 5 Afghanistan Asia         36.1      740.
 6 Afghanistan Asia         38.4      786.
 7 Afghanistan Asia         39.9      978.
 8 Afghanistan Asia         40.8      852.
 9 Afghanistan Asia         41.7      649.
10 Afghanistan Asia         41.8      635.
# ... with 1,694 more rows
```
…
.leftcol[

```r
data
```

```
# A tibble: 1,704 x 6
   country     continent  year lifeExp      pop gdpPercap
   <fct>       <fct>     <int>   <dbl>    <int>     <dbl>
 1 Afghanistan Asia       1952    28.8  8425333      779.
 2 Afghanistan Asia       1957    30.3  9240934      821.
 3 Afghanistan Asia       1962    32.0 10267083      853.
 4 Afghanistan Asia       1967    34.0 11537966      836.
 5 Afghanistan Asia       1972    36.1 13079460      740.
 6 Afghanistan Asia       1977    38.4 14880372      786.
 7 Afghanistan Asia       1982    39.9 12881816      978.
 8 Afghanistan Asia       1987    40.8 13867957      852.
 9 Afghanistan Asia       1992    41.7 16317921      649.
10 Afghanistan Asia       1997    41.8 22227415      635.
# ... with 1,694 more rows
```
…
---

## `mutate()`

Let's calculate the `gdp`

.leftcol[

```r
data
```

```
# A tibble: 1,704 x 6
   country     continent  year lifeExp      pop gdpPercap
   <fct>       <fct>     <int>   <dbl>    <int>     <dbl>
 1 Afghanistan Asia       1952    28.8  8425333      779.
 2 Afghanistan Asia       1957    30.3  9240934      821.
 3 Afghanistan Asia       1962    32.0 10267083      853.
 4 Afghanistan Asia       1967    34.0 11537966      836.
 5 Afghanistan Asia       1972    36.1 13079460      740.
 6 Afghanistan Asia       1977    38.4 14880372      786.
 7 Afghanistan Asia       1982    39.9 12881816      978.
 8 Afghanistan Asia       1987    40.8 13867957      852.
 9 Afghanistan Asia       1992    41.7 16317921      649.
10 Afghanistan Asia       1997    41.8 22227415      635.
# ... with 1,694 more rows
```
]

.rightcol[

```r
mutate(data, GDP = gdpPercap * pop)
```

```
# A tibble: 1,704 x 7
   country     continent  year lifeExp      pop gdpPercap          GDP
   <fct>       <fct>     <int>   <dbl>    <int>     <dbl>        <dbl>
 1 Afghanistan Asia       1952    28.8  8425333      779.  6567086330.
 2 Afghanistan Asia       1957    30.3  9240934      821.  7585448670.
 3 Afghanistan Asia       1962    32.0 10267083      853.  8758855797.
 4 Afghanistan Asia       1967    34.0 11537966      836.  9648014150.
 5 Afghanistan Asia       1972    36.1 13079460      740.  9678553274.
 6 Afghanistan Asia       1977    38.4 14880372      786. 11697659231.
 7 Afghanistan Asia       1982    39.9 12881816      978. 12598563401.
 8 Afghanistan Asia       1987    40.8 13867957      852. 11820990309.
 9 Afghanistan Asia       1992    41.7 16317921      649. 10595901589.
10 Afghanistan Asia       1997    41.8 22227415      635. 14121995875.
# ... with 1,694 more rows
```
…
---

## `group_by` and `summarise()`

Suppose we want to know the average population by continent.
.leftcol40[

```r
data
```

```
# A tibble: 1,704 x 6
   country     continent  year lifeExp      pop gdpPercap
   <fct>       <fct>     <int>   <dbl>    <int>     <dbl>
 1 Afghanistan Asia       1952    28.8  8425333      779.
 2 Afghanistan Asia       1957    30.3  9240934      821.
 3 Afghanistan Asia       1962    32.0 10267083      853.
 4 Afghanistan Asia       1967    34.0 11537966      836.
 5 Afghanistan Asia       1972    36.1 13079460      740.
 6 Afghanistan Asia       1977    38.4 14880372      786.
 7 Afghanistan Asia       1982    39.9 12881816      978.
 8 Afghanistan Asia       1987    40.8 13867957      852.
 9 Afghanistan Asia       1992    41.7 16317921      649.
10 Afghanistan Asia       1997    41.8 22227415      635.
# ... with 1,694 more rows
```
…
---

## `group_by` and `summarise()`

Suppose we want to know the average population by continent.
.leftcol40[

```r
data
```

```
# A tibble: 1,704 x 6
   country     continent  year lifeExp      pop gdpPercap
   <fct>       <fct>     <int>   <dbl>    <int>     <dbl>
 1 Afghanistan Asia       1952    28.8  8425333      779.
 2 Afghanistan Asia       1957    30.3  9240934      821.
 3 Afghanistan Asia       1962    32.0 10267083      853.
 4 Afghanistan Asia       1967    34.0 11537966      836.
 5 Afghanistan Asia       1972    36.1 13079460      740.
 6 Afghanistan Asia       1977    38.4 14880372      786.
 7 Afghanistan Asia       1982    39.9 12881816      978.
 8 Afghanistan Asia       1987    40.8 13867957      852.
 9 Afghanistan Asia       1992    41.7 16317921      649.
10 Afghanistan Asia       1997    41.8 22227415      635.
# ... with 1,694 more rows
```
…
## The %>% operator

.leftcol[
Calculating population by continent **without %>%**

```r
filtered_by_asia <- filter(data, continent == "Asia")
grouped_by_country <- group_by(filtered_by_asia, country)
summarised_by_country <- summarise(grouped_by_country, avg_lifeExp = mean(lifeExp))
```

.code-output-scroll[

```
# A tibble: 33 x 2
   country          avg_lifeExp
   <fct>                  <dbl>
 1 Afghanistan             37.5
 2 Bahrain                 65.6
 3 Bangladesh              49.8
 4 Cambodia                47.9
 5 China                   61.8
 6 Hong Kong, China        73.5
 7 India                   53.2
 8 Indonesia               54.3
 9 Iran                    58.6
10 Iraq                    56.6
# ... with 23 more rows
```
…
.rightcol[
Calculating population by continent **with %>%**

```r
data %>% 
  filter(continent == "Asia") %>% 
  group_by(country) %>% 
  summarise(avg_lifeExp = mean(lifeExp))
```

.code-output-scroll[

```
# A tibble: 33 x 2
   country          avg_lifeExp
   <fct>                  <dbl>
 1 Afghanistan             37.5
 2 Bahrain                 65.6
 3 Bangladesh              49.8
 4 Cambodia                47.9
 5 China                   61.8
 6 Hong Kong, China        73.5
 7 India                   53.2
 8 Indonesia               54.3
 9 Iran                    58.6
10 Iraq                    56.6
# ... with 23 more rows
```
…
Suppose we want to know the evarage life expectancy of Asian countries per year.

.leftcol[
Calculating population by continent **without %>%**

```r
filtered_by_asia <- filter(data, continent == "Asia")
grouped_by_country_year <- group_by(filtered_by_asia, country, year)
summarise(grouped_by_country_year, avg_lifeExp = mean(lifeExp))
```

.code-output-scroll[

```
# A tibble: 396 x 3
# Groups:   country [33]
   country      year avg_lifeExp
   <fct>       <int>       <dbl>
 1 Afghanistan  1952        28.8
 2 Afghanistan  1957        30.3
 3 Afghanistan  1962        32.0
 4 Afghanistan  1967        34.0
 5 Afghanistan  1972        36.1
 6 Afghanistan  1977        38.4
 7 Afghanistan  1982        39.9
 8 Afghanistan  1987        40.8
 9 Afghanistan  1992        41.7
10 Afghanistan  1997        41.8
# ... with 386 more rows
```
…
.rightcol[
Calculating population by continent **with %>%**

```r
data %>% 
  filter(continent == "Asia") %>% 
  group_by(country, year) %>% 
  summarise(avg_lifeExp = mean(lifeExp))
```

.code-output-scroll[

```
# A tibble: 396 x 3
# Groups:   country [33]
   country      year avg_lifeExp
   <fct>       <int>       <dbl>
 1 Afghanistan  1952        28.8
 2 Afghanistan  1957        30.3
 3 Afghanistan  1962        32.0
 4 Afghanistan  1967        34.0
 5 Afghanistan  1972        36.1
 6 Afghanistan  1977        38.4
 7 Afghanistan  1982        39.9
 8 Afghanistan  1987        40.8
 9 Afghanistan  1992        41.7
10 Afghanistan  1997        41.8
# ... with 386 more rows
```
…
## Wide vs Long data format

**`pivot_longer`**

.leftcol[

```r
library(readxl)
urbanpop <- read_excel("data/urbanpop.xlsx")
print(urbanpop)
```

```
# A tibble: 209 x 8
   country               `1960`    `1961`    `1962`    `1963`    `1964`    `1965`    `1966`
   <chr>                  <dbl>     <dbl>     <dbl>     <dbl>     <dbl>     <dbl>     <dbl>
 1 Afghanistan           769308   814923.   858522.   903914.   951226.  1000582.  1058743.
 2 Albania               494443   511803.   529439.   547377.   565572.   583983.   602512.
 3 Algeria              3293999  3515148.  3739963.  3973289.  4220987.  4488176.  4649105.
 4 American Samoa            NA    13660.    14166.    14759.    15396.    16045.    16693.
 5 Andorra                   NA     8724.     9700.    10748.    11866.    13053.    14217.
 6 Angola                521205   548265.   579695.   612087.   645262.   679109.   717833.
 7 Antigua and Barbuda    21699    21635.    21664.    21741.    21830.    21909.    22003.
 8 Argentina           15224096 15545223. 15912120. 16282345. 16654412. 17027712. 17389812.
 9 Armenia               957974  1008597.  1061426.  1115612.  1170683.  1226270.  1281582.
10 Aruba                  24996    28140.    28533.    28763.    28923.    29083.    29252.
# ... with 199 more rows
```
]

.rightcol[

```r
pivot_longer(data = urbanpop, cols = "1960":"1966",
             names_to = "year",
             values_to = "pop")
```

```
# A tibble: 1,463 x 3
   country     year       pop
   <chr>       <chr>    <dbl>
 1 Afghanistan 1960   769308 
 2 Afghanistan 1961   814923.
 3 Afghanistan 1962   858522.
 4 Afghanistan 1963   903914.
 5 Afghanistan 1964   951226.
 6 Afghanistan 1965  1000582.
 7 Afghanistan 1966  1058743.
 8 Albania     1960   494443 
 9 Albania     1961   511803.
10 Albania     1962   529439.
# ... with 1,453 more rows
```
…
---

## Wide vs Long data format

**`pivot_wider`**

.leftcol[

```r
potato_data
```

```
# A tibble: 1,280 x 3
      id measure   value
   <int> <chr>     <dbl>
 1     1 area        1  
 2     1 temp        1  
 3     1 size        1  
 4     1 storage     1  
 5     1 method      1  
 6     1 texture     2.9
 7     1 flavor      3.2
 8     1 moistness   3  
 9     2 area        1  
10     2 temp        1  
# ... with 1,270 more rows
```
]

.rightcol[

```r
pivot_wider(data = potato_data,
            names_from = "measure", 
            values_from = "value")
```

```
# A tibble: 160 x 9
      id  area  temp  size storage method texture flavor moistness
   <int> <dbl> <dbl> <dbl>   <dbl>  <dbl>   <dbl>  <dbl>     <dbl>
 1     1     1     1     1       1      1     2.9    3.2       3  
 2     2     1     1     1       1      2     2.3    2.5       2.6
 3     3     1     1     1       1      3     2.5    2.8       2.8
 4     4     1     1     1       1      4     2.1    2.9       2.4
 5     5     1     1     1       1      5     1.9    2.8       2.2
 6     6     1     1     1       2      1     1.8    3         1.7
 7     7     1     1     1       2      2     2.6    3.1       2.4
 8     8     1     1     1       2      3     3      3         2.9
 9     9     1     1     1       2      4     2.2    3.2       2.5
10    10     1     1     1       2      5     2      2.8       1.9
# ... with 150 more rows
```
…
